%YAML 1.1
%TAG !u! tag:unity3d.com,2011:
--- !u!74 &7400000
AnimationClip:
  m_ObjectHideFlags: 0
  m_CorrespondingSourceObject: {fileID: 0}
  m_PrefabInstance: {fileID: 0}
  m_PrefabAsset: {fileID: 0}
  m_Name: BreakablePlatform_Break
  serializedVersion: 6
  m_Legacy: 0
  m_Compressed: 0
  m_UseHighQualityCurve: 1
  m_RotationCurves: []
  m_CompressedRotationCurves: []
  m_EulerCurves: []
  m_PositionCurves: []
  m_ScaleCurves: []
  m_FloatCurves: []
  m_PPtrCurves:
  - curve:
    - time: 0
      value: {fileID: 8846697015507728850, guid: e0fdf448c3c73204f999dd7c72a7fb43,
        type: 3}
    - time: 0.083333336
      value: {fileID: 4812631009229882045, guid: e0fdf448c3c73204f999dd7c72a7fb43,
        type: 3}
    - time: 0.16666667
      value: {fileID: 331966579329042427, guid: e0fdf448c3c73204f999dd7c72a7fb43,
        type: 3}
    - time: 0.25
      value: {fileID: 4483247596868601115, guid: e0fdf448c3c73204f999dd7c72a7fb43,
        type: 3}
    - time: 0.33333334
      value: {fileID: 8574327936927977239, guid: e0fdf448c3c73204f999dd7c72a7fb43,
        type: 3}
    - time: 0.41666666
      value: {fileID: -6554625099248606943, guid: e0fdf448c3c73204f999dd7c72a7fb43,
        type: 3}
    - time: 0.5
      value: {fileID: 8291141729075391027, guid: e0fdf448c3c73204f999dd7c72a7fb43,
        type: 3}
    - time: 0.5833333
      value: {fileID: 6044545404264365264, guid: e0fdf448c3c73204f999dd7c72a7fb43,
        type: 3}
    - time: 0.6666667
      value: {fileID: -5906430866457179028, guid: e0fdf448c3c73204f999dd7c72a7fb43,
        type: 3}
    - time: 0.75
      value: {fileID: 964172540297034531, guid: e0fdf448c3c73204f999dd7c72a7fb43,
        type: 3}
    - time: 0.8333333
      value: {fileID: 4726814148173846199, guid: e0fdf448c3c73204f999dd7c72a7fb43,
        type: 3}
    - time: 0.9166667
      value: {fileID: -9181122318694370996, guid: e0fdf448c3c73204f999dd7c72a7fb43,
        type: 3}
    - time: 1
      value: {fileID: 2501367411030981423, guid: e0fdf448c3c73204f999dd7c72a7fb43,
        type: 3}
    - time: 1.0833334
      value: {fileID: 4432710940033369338, guid: e0fdf448c3c73204f999dd7c72a7fb43,
        type: 3}
    - time: 1.1666666
      value: {fileID: 5170880475701612577, guid: e0fdf448c3c73204f999dd7c72a7fb43,
        type: 3}
    - time: 1.25
      value: {fileID: -6415011320878895907, guid: e0fdf448c3c73204f999dd7c72a7fb43,
        type: 3}
    - time: 1.3333334
      value: {fileID: 6668037458074575140, guid: e0fdf448c3c73204f999dd7c72a7fb43,
        type: 3}
    - time: 1.4166666
      value: {fileID: -3396858773819050444, guid: e0fdf448c3c73204f999dd7c72a7fb43,
        type: 3}
    - time: 1.5
      value: {fileID: -4430545347176920794, guid: e0fdf448c3c73204f999dd7c72a7fb43,
        type: 3}
    - time: 1.5833334
      value: {fileID: 3969565241186830414, guid: e0fdf448c3c73204f999dd7c72a7fb43,
        type: 3}
    - time: 1.6666666
      value: {fileID: 4293131208436340139, guid: e0fdf448c3c73204f999dd7c72a7fb43,
        type: 3}
    attribute: m_Sprite
    path: 
    classID: 212
    script: {fileID: 0}
  m_SampleRate: 12
  m_WrapMode: 0
  m_Bounds:
    m_Center: {x: 0, y: 0, z: 0}
    m_Extent: {x: 0, y: 0, z: 0}
  m_ClipBindingConstant:
    genericBindings:
    - serializedVersion: 2
      path: 0
      attribute: 0
      script: {fileID: 0}
      typeID: 212
      customType: 23
      isPPtrCurve: 1
    pptrCurveMapping:
    - {fileID: 8846697015507728850, guid: e0fdf448c3c73204f999dd7c72a7fb43, type: 3}
    - {fileID: 4812631009229882045, guid: e0fdf448c3c73204f999dd7c72a7fb43, type: 3}
    - {fileID: 331966579329042427, guid: e0fdf448c3c73204f999dd7c72a7fb43, type: 3}
    - {fileID: 4483247596868601115, guid: e0fdf448c3c73204f999dd7c72a7fb43, type: 3}
    - {fileID: 8574327936927977239, guid: e0fdf448c3c73204f999dd7c72a7fb43, type: 3}
    - {fileID: -6554625099248606943, guid: e0fdf448c3c73204f999dd7c72a7fb43, type: 3}
    - {fileID: 8291141729075391027, guid: e0fdf448c3c73204f999dd7c72a7fb43, type: 3}
    - {fileID: 6044545404264365264, guid: e0fdf448c3c73204f999dd7c72a7fb43, type: 3}
    - {fileID: -5906430866457179028, guid: e0fdf448c3c73204f999dd7c72a7fb43, type: 3}
    - {fileID: 964172540297034531, guid: e0fdf448c3c73204f999dd7c72a7fb43, type: 3}
    - {fileID: 4726814148173846199, guid: e0fdf448c3c73204f999dd7c72a7fb43, type: 3}
    - {fileID: -9181122318694370996, guid: e0fdf448c3c73204f999dd7c72a7fb43, type: 3}
    - {fileID: 2501367411030981423, guid: e0fdf448c3c73204f999dd7c72a7fb43, type: 3}
    - {fileID: 4432710940033369338, guid: e0fdf448c3c73204f999dd7c72a7fb43, type: 3}
    - {fileID: 5170880475701612577, guid: e0fdf448c3c73204f999dd7c72a7fb43, type: 3}
    - {fileID: -6415011320878895907, guid: e0fdf448c3c73204f999dd7c72a7fb43, type: 3}
    - {fileID: 6668037458074575140, guid: e0fdf448c3c73204f999dd7c72a7fb43, type: 3}
    - {fileID: -3396858773819050444, guid: e0fdf448c3c73204f999dd7c72a7fb43, type: 3}
    - {fileID: -4430545347176920794, guid: e0fdf448c3c73204f999dd7c72a7fb43, type: 3}
    - {fileID: 3969565241186830414, guid: e0fdf448c3c73204f999dd7c72a7fb43, type: 3}
    - {fileID: 4293131208436340139, guid: e0fdf448c3c73204f999dd7c72a7fb43, type: 3}
  m_AnimationClipSettings:
    serializedVersion: 2
    m_AdditiveReferencePoseClip: {fileID: 0}
    m_AdditiveReferencePoseTime: 0
    m_StartTime: 0
    m_StopTime: 1.75
    m_OrientationOffsetY: 0
    m_Level: 0
    m_CycleOffset: 0
    m_HasAdditiveReferencePose: 0
    m_LoopTime: 0
    m_LoopBlend: 0
    m_LoopBlendOrientation: 0
    m_LoopBlendPositionY: 0
    m_LoopBlendPositionXZ: 0
    m_KeepOriginalOrientation: 0
    m_KeepOriginalPositionY: 1
    m_KeepOriginalPositionXZ: 0
    m_HeightFromFeet: 0
    m_Mirror: 0
  m_EditorCurves: []
  m_EulerEditorCurves: []
  m_HasGenericRootTransform: 0
  m_HasMotionFloatCurves: 0
  m_Events: []
