%YAML 1.1
%TAG !u! tag:unity3d.com,2011:
--- !u!74 &7400000
AnimationClip:
  m_ObjectHideFlags: 0
  m_CorrespondingSourceObject: {fileID: 0}
  m_PrefabInstance: {fileID: 0}
  m_PrefabAsset: {fileID: 0}
  m_Name: AttackWithPlayer
  serializedVersion: 6
  m_Legacy: 0
  m_Compressed: 0
  m_UseHighQualityCurve: 1
  m_RotationCurves: []
  m_CompressedRotationCurves: []
  m_EulerCurves: []
  m_PositionCurves: []
  m_ScaleCurves: []
  m_FloatCurves: []
  m_PPtrCurves:
  - curve:
    - time: 0
      value: {fileID: -10364620314821313, guid: 22b8004dbe2e2634eab4fe8b920a3edd,
        type: 3}
    - time: 0.083333336
      value: {fileID: 7314322540832862957, guid: 22b8004dbe2e2634eab4fe8b920a3edd,
        type: 3}
    - time: 0.16666667
      value: {fileID: 5190175132511164605, guid: 22b8004dbe2e2634eab4fe8b920a3edd,
        type: 3}
    - time: 0.25
      value: {fileID: 5613972282175086479, guid: 22b8004dbe2e2634eab4fe8b920a3edd,
        type: 3}
    - time: 0.33333334
      value: {fileID: -3137994224336115349, guid: 22b8004dbe2e2634eab4fe8b920a3edd,
        type: 3}
    - time: 0.41666666
      value: {fileID: -7749152449688718761, guid: 22b8004dbe2e2634eab4fe8b920a3edd,
        type: 3}
    - time: 0.5
      value: {fileID: -159254791430404874, guid: 22b8004dbe2e2634eab4fe8b920a3edd,
        type: 3}
    - time: 0.5833333
      value: {fileID: -4147621811427191562, guid: 22b8004dbe2e2634eab4fe8b920a3edd,
        type: 3}
    - time: 0.6666667
      value: {fileID: -8123648960841853805, guid: 22b8004dbe2e2634eab4fe8b920a3edd,
        type: 3}
    - time: 0.75
      value: {fileID: 5303701598795876074, guid: 22b8004dbe2e2634eab4fe8b920a3edd,
        type: 3}
    - time: 0.8333333
      value: {fileID: 1798635331456045460, guid: 22b8004dbe2e2634eab4fe8b920a3edd,
        type: 3}
    - time: 0.9166667
      value: {fileID: -2124910629846621606, guid: 22b8004dbe2e2634eab4fe8b920a3edd,
        type: 3}
    - time: 1
      value: {fileID: 2460501729038848850, guid: 22b8004dbe2e2634eab4fe8b920a3edd,
        type: 3}
    - time: 1.0833334
      value: {fileID: -8124351646499364029, guid: 22b8004dbe2e2634eab4fe8b920a3edd,
        type: 3}
    - time: 1.1666666
      value: {fileID: -5137742800624609871, guid: 22b8004dbe2e2634eab4fe8b920a3edd,
        type: 3}
    - time: 1.25
      value: {fileID: 7561454782072762694, guid: 22b8004dbe2e2634eab4fe8b920a3edd,
        type: 3}
    - time: 1.3333334
      value: {fileID: 5027582708798091019, guid: 22b8004dbe2e2634eab4fe8b920a3edd,
        type: 3}
    - time: 1.4166666
      value: {fileID: 1465341006831400504, guid: 22b8004dbe2e2634eab4fe8b920a3edd,
        type: 3}
    - time: 1.5
      value: {fileID: 3946405991471629516, guid: 22b8004dbe2e2634eab4fe8b920a3edd,
        type: 3}
    - time: 1.5833334
      value: {fileID: 3860292027111671293, guid: 22b8004dbe2e2634eab4fe8b920a3edd,
        type: 3}
    - time: 1.6666666
      value: {fileID: 7591401324741670686, guid: 22b8004dbe2e2634eab4fe8b920a3edd,
        type: 3}
    - time: 1.75
      value: {fileID: -2147252687710112496, guid: 22b8004dbe2e2634eab4fe8b920a3edd,
        type: 3}
    - time: 1.8333334
      value: {fileID: -4786262184763243360, guid: 22b8004dbe2e2634eab4fe8b920a3edd,
        type: 3}
    - time: 1.9166666
      value: {fileID: 6781331663025133441, guid: 22b8004dbe2e2634eab4fe8b920a3edd,
        type: 3}
    - time: 2
      value: {fileID: -1759952647139204394, guid: 22b8004dbe2e2634eab4fe8b920a3edd,
        type: 3}
    - time: 2.0833333
      value: {fileID: -2908788427044758259, guid: 22b8004dbe2e2634eab4fe8b920a3edd,
        type: 3}
    - time: 2.1666667
      value: {fileID: 1771275726316640680, guid: 22b8004dbe2e2634eab4fe8b920a3edd,
        type: 3}
    - time: 2.25
      value: {fileID: 2460476865906123679, guid: 22b8004dbe2e2634eab4fe8b920a3edd,
        type: 3}
    - time: 2.3333333
      value: {fileID: -9221754026791411740, guid: 22b8004dbe2e2634eab4fe8b920a3edd,
        type: 3}
    - time: 2.4166667
      value: {fileID: -3792668478670201570, guid: 22b8004dbe2e2634eab4fe8b920a3edd,
        type: 3}
    - time: 2.5
      value: {fileID: -6020781134586132663, guid: 22b8004dbe2e2634eab4fe8b920a3edd,
        type: 3}
    - time: 2.5833333
      value: {fileID: -7644099008501029422, guid: 22b8004dbe2e2634eab4fe8b920a3edd,
        type: 3}
    - time: 2.6666667
      value: {fileID: -482717824766128864, guid: 22b8004dbe2e2634eab4fe8b920a3edd,
        type: 3}
    - time: 2.75
      value: {fileID: 6792175532540054808, guid: 22b8004dbe2e2634eab4fe8b920a3edd,
        type: 3}
    - time: 2.8333333
      value: {fileID: 2751291842171978437, guid: 22b8004dbe2e2634eab4fe8b920a3edd,
        type: 3}
    - time: 2.9166667
      value: {fileID: 2086110614297498175, guid: 22b8004dbe2e2634eab4fe8b920a3edd,
        type: 3}
    - time: 3
      value: {fileID: -7149152516631371128, guid: 22b8004dbe2e2634eab4fe8b920a3edd,
        type: 3}
    - time: 3.0833333
      value: {fileID: -4407900055160281194, guid: 22b8004dbe2e2634eab4fe8b920a3edd,
        type: 3}
    - time: 3.1666667
      value: {fileID: -6530379973692920798, guid: 22b8004dbe2e2634eab4fe8b920a3edd,
        type: 3}
    - time: 3.25
      value: {fileID: 1074403311548072489, guid: 22b8004dbe2e2634eab4fe8b920a3edd,
        type: 3}
    - time: 3.3333333
      value: {fileID: -7917819919851489346, guid: 22b8004dbe2e2634eab4fe8b920a3edd,
        type: 3}
    - time: 3.4166667
      value: {fileID: 3622715274113023662, guid: 22b8004dbe2e2634eab4fe8b920a3edd,
        type: 3}
    - time: 3.5
      value: {fileID: 8757033284708840519, guid: 22b8004dbe2e2634eab4fe8b920a3edd,
        type: 3}
    - time: 3.5833333
      value: {fileID: 6338118331889739440, guid: 22b8004dbe2e2634eab4fe8b920a3edd,
        type: 3}
    - time: 3.6666667
      value: {fileID: 935203997302646254, guid: 22b8004dbe2e2634eab4fe8b920a3edd,
        type: 3}
    - time: 3.75
      value: {fileID: -7442792833321156162, guid: 22b8004dbe2e2634eab4fe8b920a3edd,
        type: 3}
    - time: 3.8333333
      value: {fileID: -6524864372416246768, guid: 22b8004dbe2e2634eab4fe8b920a3edd,
        type: 3}
    - time: 3.9166667
      value: {fileID: 7863157177799136036, guid: 22b8004dbe2e2634eab4fe8b920a3edd,
        type: 3}
    - time: 4
      value: {fileID: 537264916374601074, guid: 22b8004dbe2e2634eab4fe8b920a3edd,
        type: 3}
    - time: 4.0833335
      value: {fileID: -659184102172121395, guid: 22b8004dbe2e2634eab4fe8b920a3edd,
        type: 3}
    - time: 4.1666665
      value: {fileID: -3427900481386259360, guid: 22b8004dbe2e2634eab4fe8b920a3edd,
        type: 3}
    - time: 4.25
      value: {fileID: -5194765554353462795, guid: 22b8004dbe2e2634eab4fe8b920a3edd,
        type: 3}
    - time: 4.3333335
      value: {fileID: -2224858450306300061, guid: 22b8004dbe2e2634eab4fe8b920a3edd,
        type: 3}
    - time: 4.4166665
      value: {fileID: -5226681748802291119, guid: 22b8004dbe2e2634eab4fe8b920a3edd,
        type: 3}
    - time: 4.5
      value: {fileID: 3498126531326565875, guid: 22b8004dbe2e2634eab4fe8b920a3edd,
        type: 3}
    - time: 4.5833335
      value: {fileID: 5064629364741472020, guid: 22b8004dbe2e2634eab4fe8b920a3edd,
        type: 3}
    - time: 4.6666665
      value: {fileID: 3078959608398314251, guid: 22b8004dbe2e2634eab4fe8b920a3edd,
        type: 3}
    - time: 4.75
      value: {fileID: 3429147645755674964, guid: 22b8004dbe2e2634eab4fe8b920a3edd,
        type: 3}
    - time: 4.8333335
      value: {fileID: 3520918827137857093, guid: 22b8004dbe2e2634eab4fe8b920a3edd,
        type: 3}
    - time: 4.9166665
      value: {fileID: 1327279982550758285, guid: 22b8004dbe2e2634eab4fe8b920a3edd,
        type: 3}
    attribute: m_Sprite
    path: 
    classID: 212
    script: {fileID: 0}
  m_SampleRate: 12
  m_WrapMode: 0
  m_Bounds:
    m_Center: {x: 0, y: 0, z: 0}
    m_Extent: {x: 0, y: 0, z: 0}
  m_ClipBindingConstant:
    genericBindings:
    - serializedVersion: 2
      path: 0
      attribute: 0
      script: {fileID: 0}
      typeID: 212
      customType: 23
      isPPtrCurve: 1
    pptrCurveMapping:
    - {fileID: -10364620314821313, guid: 22b8004dbe2e2634eab4fe8b920a3edd, type: 3}
    - {fileID: 7314322540832862957, guid: 22b8004dbe2e2634eab4fe8b920a3edd, type: 3}
    - {fileID: 5190175132511164605, guid: 22b8004dbe2e2634eab4fe8b920a3edd, type: 3}
    - {fileID: 5613972282175086479, guid: 22b8004dbe2e2634eab4fe8b920a3edd, type: 3}
    - {fileID: -3137994224336115349, guid: 22b8004dbe2e2634eab4fe8b920a3edd, type: 3}
    - {fileID: -7749152449688718761, guid: 22b8004dbe2e2634eab4fe8b920a3edd, type: 3}
    - {fileID: -159254791430404874, guid: 22b8004dbe2e2634eab4fe8b920a3edd, type: 3}
    - {fileID: -4147621811427191562, guid: 22b8004dbe2e2634eab4fe8b920a3edd, type: 3}
    - {fileID: -8123648960841853805, guid: 22b8004dbe2e2634eab4fe8b920a3edd, type: 3}
    - {fileID: 5303701598795876074, guid: 22b8004dbe2e2634eab4fe8b920a3edd, type: 3}
    - {fileID: 1798635331456045460, guid: 22b8004dbe2e2634eab4fe8b920a3edd, type: 3}
    - {fileID: -2124910629846621606, guid: 22b8004dbe2e2634eab4fe8b920a3edd, type: 3}
    - {fileID: 2460501729038848850, guid: 22b8004dbe2e2634eab4fe8b920a3edd, type: 3}
    - {fileID: -8124351646499364029, guid: 22b8004dbe2e2634eab4fe8b920a3edd, type: 3}
    - {fileID: -5137742800624609871, guid: 22b8004dbe2e2634eab4fe8b920a3edd, type: 3}
    - {fileID: 7561454782072762694, guid: 22b8004dbe2e2634eab4fe8b920a3edd, type: 3}
    - {fileID: 5027582708798091019, guid: 22b8004dbe2e2634eab4fe8b920a3edd, type: 3}
    - {fileID: 1465341006831400504, guid: 22b8004dbe2e2634eab4fe8b920a3edd, type: 3}
    - {fileID: 3946405991471629516, guid: 22b8004dbe2e2634eab4fe8b920a3edd, type: 3}
    - {fileID: 3860292027111671293, guid: 22b8004dbe2e2634eab4fe8b920a3edd, type: 3}
    - {fileID: 7591401324741670686, guid: 22b8004dbe2e2634eab4fe8b920a3edd, type: 3}
    - {fileID: -2147252687710112496, guid: 22b8004dbe2e2634eab4fe8b920a3edd, type: 3}
    - {fileID: -4786262184763243360, guid: 22b8004dbe2e2634eab4fe8b920a3edd, type: 3}
    - {fileID: 6781331663025133441, guid: 22b8004dbe2e2634eab4fe8b920a3edd, type: 3}
    - {fileID: -1759952647139204394, guid: 22b8004dbe2e2634eab4fe8b920a3edd, type: 3}
    - {fileID: -2908788427044758259, guid: 22b8004dbe2e2634eab4fe8b920a3edd, type: 3}
    - {fileID: 1771275726316640680, guid: 22b8004dbe2e2634eab4fe8b920a3edd, type: 3}
    - {fileID: 2460476865906123679, guid: 22b8004dbe2e2634eab4fe8b920a3edd, type: 3}
    - {fileID: -9221754026791411740, guid: 22b8004dbe2e2634eab4fe8b920a3edd, type: 3}
    - {fileID: -3792668478670201570, guid: 22b8004dbe2e2634eab4fe8b920a3edd, type: 3}
    - {fileID: -6020781134586132663, guid: 22b8004dbe2e2634eab4fe8b920a3edd, type: 3}
    - {fileID: -7644099008501029422, guid: 22b8004dbe2e2634eab4fe8b920a3edd, type: 3}
    - {fileID: -482717824766128864, guid: 22b8004dbe2e2634eab4fe8b920a3edd, type: 3}
    - {fileID: 6792175532540054808, guid: 22b8004dbe2e2634eab4fe8b920a3edd, type: 3}
    - {fileID: 2751291842171978437, guid: 22b8004dbe2e2634eab4fe8b920a3edd, type: 3}
    - {fileID: 2086110614297498175, guid: 22b8004dbe2e2634eab4fe8b920a3edd, type: 3}
    - {fileID: -7149152516631371128, guid: 22b8004dbe2e2634eab4fe8b920a3edd, type: 3}
    - {fileID: -4407900055160281194, guid: 22b8004dbe2e2634eab4fe8b920a3edd, type: 3}
    - {fileID: -6530379973692920798, guid: 22b8004dbe2e2634eab4fe8b920a3edd, type: 3}
    - {fileID: 1074403311548072489, guid: 22b8004dbe2e2634eab4fe8b920a3edd, type: 3}
    - {fileID: -7917819919851489346, guid: 22b8004dbe2e2634eab4fe8b920a3edd, type: 3}
    - {fileID: 3622715274113023662, guid: 22b8004dbe2e2634eab4fe8b920a3edd, type: 3}
    - {fileID: 8757033284708840519, guid: 22b8004dbe2e2634eab4fe8b920a3edd, type: 3}
    - {fileID: 6338118331889739440, guid: 22b8004dbe2e2634eab4fe8b920a3edd, type: 3}
    - {fileID: 935203997302646254, guid: 22b8004dbe2e2634eab4fe8b920a3edd, type: 3}
    - {fileID: -7442792833321156162, guid: 22b8004dbe2e2634eab4fe8b920a3edd, type: 3}
    - {fileID: -6524864372416246768, guid: 22b8004dbe2e2634eab4fe8b920a3edd, type: 3}
    - {fileID: 7863157177799136036, guid: 22b8004dbe2e2634eab4fe8b920a3edd, type: 3}
    - {fileID: 537264916374601074, guid: 22b8004dbe2e2634eab4fe8b920a3edd, type: 3}
    - {fileID: -659184102172121395, guid: 22b8004dbe2e2634eab4fe8b920a3edd, type: 3}
    - {fileID: -3427900481386259360, guid: 22b8004dbe2e2634eab4fe8b920a3edd, type: 3}
    - {fileID: -5194765554353462795, guid: 22b8004dbe2e2634eab4fe8b920a3edd, type: 3}
    - {fileID: -2224858450306300061, guid: 22b8004dbe2e2634eab4fe8b920a3edd, type: 3}
    - {fileID: -5226681748802291119, guid: 22b8004dbe2e2634eab4fe8b920a3edd, type: 3}
    - {fileID: 3498126531326565875, guid: 22b8004dbe2e2634eab4fe8b920a3edd, type: 3}
    - {fileID: 5064629364741472020, guid: 22b8004dbe2e2634eab4fe8b920a3edd, type: 3}
    - {fileID: 3078959608398314251, guid: 22b8004dbe2e2634eab4fe8b920a3edd, type: 3}
    - {fileID: 3429147645755674964, guid: 22b8004dbe2e2634eab4fe8b920a3edd, type: 3}
    - {fileID: 3520918827137857093, guid: 22b8004dbe2e2634eab4fe8b920a3edd, type: 3}
    - {fileID: 1327279982550758285, guid: 22b8004dbe2e2634eab4fe8b920a3edd, type: 3}
  m_AnimationClipSettings:
    serializedVersion: 2
    m_AdditiveReferencePoseClip: {fileID: 0}
    m_AdditiveReferencePoseTime: 0
    m_StartTime: 0
    m_StopTime: 5
    m_OrientationOffsetY: 0
    m_Level: 0
    m_CycleOffset: 0
    m_HasAdditiveReferencePose: 0
    m_LoopTime: 1
    m_LoopBlend: 0
    m_LoopBlendOrientation: 0
    m_LoopBlendPositionY: 0
    m_LoopBlendPositionXZ: 0
    m_KeepOriginalOrientation: 0
    m_KeepOriginalPositionY: 1
    m_KeepOriginalPositionXZ: 0
    m_HeightFromFeet: 0
    m_Mirror: 0
  m_EditorCurves: []
  m_EulerEditorCurves: []
  m_HasGenericRootTransform: 0
  m_HasMotionFloatCurves: 0
  m_Events: []
