%YAML 1.1
%TAG !u! tag:unity3d.com,2011:
--- !u!74 &7400000
AnimationClip:
  m_ObjectHideFlags: 0
  m_CorrespondingSourceObject: {fileID: 0}
  m_PrefabInstance: {fileID: 0}
  m_PrefabAsset: {fileID: 0}
  m_Name: Player_Colgado_IDLE
  serializedVersion: 6
  m_Legacy: 0
  m_Compressed: 0
  m_UseHighQualityCurve: 1
  m_RotationCurves: []
  m_CompressedRotationCurves: []
  m_EulerCurves: []
  m_PositionCurves: []
  m_ScaleCurves: []
  m_FloatCurves: []
  m_PPtrCurves:
  - curve:
    - time: 0
      value: {fileID: -7210891152597812740, guid: e788fdb248d320f488114ec851fcc6d8,
        type: 3}
    - time: 0.33333334
      value: {fileID: 1044142270409641132, guid: e788fdb248d320f488114ec851fcc6d8,
        type: 3}
    - time: 0.6666667
      value: {fileID: -6662103106267988288, guid: e788fdb248d320f488114ec851fcc6d8,
        type: 3}
    - time: 1.6666666
      value: {fileID: -161183533067227280, guid: e788fdb248d320f488114ec851fcc6d8,
        type: 3}
    - time: 2
      value: {fileID: -3535072521612220659, guid: e788fdb248d320f488114ec851fcc6d8,
        type: 3}
    - time: 2.3333333
      value: {fileID: -7650865294888965387, guid: e788fdb248d320f488114ec851fcc6d8,
        type: 3}
    - time: 3
      value: {fileID: -7650865294888965387, guid: e788fdb248d320f488114ec851fcc6d8,
        type: 3}
    attribute: m_Sprite
    path: 
    classID: 212
    script: {fileID: 0}
  m_SampleRate: 3
  m_WrapMode: 0
  m_Bounds:
    m_Center: {x: 0, y: 0, z: 0}
    m_Extent: {x: 0, y: 0, z: 0}
  m_ClipBindingConstant:
    genericBindings:
    - serializedVersion: 2
      path: 0
      attribute: 0
      script: {fileID: 0}
      typeID: 212
      customType: 23
      isPPtrCurve: 1
    pptrCurveMapping:
    - {fileID: -7210891152597812740, guid: e788fdb248d320f488114ec851fcc6d8, type: 3}
    - {fileID: 1044142270409641132, guid: e788fdb248d320f488114ec851fcc6d8, type: 3}
    - {fileID: -6662103106267988288, guid: e788fdb248d320f488114ec851fcc6d8, type: 3}
    - {fileID: -161183533067227280, guid: e788fdb248d320f488114ec851fcc6d8, type: 3}
    - {fileID: -3535072521612220659, guid: e788fdb248d320f488114ec851fcc6d8, type: 3}
    - {fileID: -7650865294888965387, guid: e788fdb248d320f488114ec851fcc6d8, type: 3}
    - {fileID: -7650865294888965387, guid: e788fdb248d320f488114ec851fcc6d8, type: 3}
  m_AnimationClipSettings:
    serializedVersion: 2
    m_AdditiveReferencePoseClip: {fileID: 0}
    m_AdditiveReferencePoseTime: 0
    m_StartTime: 0
    m_StopTime: 3.3333333
    m_OrientationOffsetY: 0
    m_Level: 0
    m_CycleOffset: 0
    m_HasAdditiveReferencePose: 0
    m_LoopTime: 1
    m_LoopBlend: 0
    m_LoopBlendOrientation: 0
    m_LoopBlendPositionY: 0
    m_LoopBlendPositionXZ: 0
    m_KeepOriginalOrientation: 0
    m_KeepOriginalPositionY: 1
    m_KeepOriginalPositionXZ: 0
    m_HeightFromFeet: 0
    m_Mirror: 0
  m_EditorCurves: []
  m_EulerEditorCurves: []
  m_HasGenericRootTransform: 0
  m_HasMotionFloatCurves: 0
  m_Events: []
