%YAML 1.1
%TAG !u! tag:unity3d.com,2011:
--- !u!74 &7400000
AnimationClip:
  m_ObjectHideFlags: 0
  m_CorrespondingSourceObject: {fileID: 0}
  m_PrefabInstance: {fileID: 0}
  m_PrefabAsset: {fileID: 0}
  m_Name: Player_Melee_Cadena
  serializedVersion: 6
  m_Legacy: 0
  m_Compressed: 0
  m_UseHighQualityCurve: 1
  m_RotationCurves: []
  m_CompressedRotationCurves: []
  m_EulerCurves: []
  m_PositionCurves: []
  m_ScaleCurves: []
  m_FloatCurves: []
  m_PPtrCurves:
  - curve:
    - time: 0
      value: {fileID: 21300000, guid: eed2c0db7ab187e42821a79ed301aa98, type: 3}
    - time: 0.05
      value: {fileID: 21300000, guid: 3c3a7c7eff81ae44a8c2ba753b69f2c4, type: 3}
    - time: 0.125
      value: {fileID: 21300000, guid: 5e10ba0fc1398e64b8ce3da125124246, type: 3}
    - time: 0.2
      value: {fileID: 21300000, guid: a4f28f255d77a394988bbae4f8c55cbb, type: 3}
    - time: 0.275
      value: {fileID: 21300000, guid: d18b5fd1a38319744b77c68f49c3fca2, type: 3}
    - time: 0.325
      value: {fileID: 21300000, guid: 7671b1ddc3f92fa40be4bf268a67770c, type: 3}
    - time: 0.425
      value: {fileID: 21300000, guid: 231534502033bd14ab2069c2596dcdf9, type: 3}
    - time: 0.55
      value: {fileID: 21300000, guid: 628e1bcbe38011b49b64ba6adf41d3e1, type: 3}
    - time: 0.675
      value: {fileID: 21300000, guid: c24040515f64566449b593af410bddd1, type: 3}
    - time: 0.725
      value: {fileID: 21300000, guid: c24040515f64566449b593af410bddd1, type: 3}
    attribute: m_Sprite
    path: 
    classID: 212
    script: {fileID: 0}
  m_SampleRate: 40
  m_WrapMode: 0
  m_Bounds:
    m_Center: {x: 0, y: 0, z: 0}
    m_Extent: {x: 0, y: 0, z: 0}
  m_ClipBindingConstant:
    genericBindings:
    - serializedVersion: 2
      path: 0
      attribute: 0
      script: {fileID: 0}
      typeID: 212
      customType: 23
      isPPtrCurve: 1
    pptrCurveMapping:
    - {fileID: 21300000, guid: eed2c0db7ab187e42821a79ed301aa98, type: 3}
    - {fileID: 21300000, guid: 3c3a7c7eff81ae44a8c2ba753b69f2c4, type: 3}
    - {fileID: 21300000, guid: 5e10ba0fc1398e64b8ce3da125124246, type: 3}
    - {fileID: 21300000, guid: a4f28f255d77a394988bbae4f8c55cbb, type: 3}
    - {fileID: 21300000, guid: d18b5fd1a38319744b77c68f49c3fca2, type: 3}
    - {fileID: 21300000, guid: 7671b1ddc3f92fa40be4bf268a67770c, type: 3}
    - {fileID: 21300000, guid: 231534502033bd14ab2069c2596dcdf9, type: 3}
    - {fileID: 21300000, guid: 628e1bcbe38011b49b64ba6adf41d3e1, type: 3}
    - {fileID: 21300000, guid: c24040515f64566449b593af410bddd1, type: 3}
    - {fileID: 21300000, guid: c24040515f64566449b593af410bddd1, type: 3}
  m_AnimationClipSettings:
    serializedVersion: 2
    m_AdditiveReferencePoseClip: {fileID: 0}
    m_AdditiveReferencePoseTime: 0
    m_StartTime: 0
    m_StopTime: 0.75
    m_OrientationOffsetY: 0
    m_Level: 0
    m_CycleOffset: 0
    m_HasAdditiveReferencePose: 0
    m_LoopTime: 0
    m_LoopBlend: 0
    m_LoopBlendOrientation: 0
    m_LoopBlendPositionY: 0
    m_LoopBlendPositionXZ: 0
    m_KeepOriginalOrientation: 0
    m_KeepOriginalPositionY: 1
    m_KeepOriginalPositionXZ: 0
    m_HeightFromFeet: 0
    m_Mirror: 0
  m_EditorCurves: []
  m_EulerEditorCurves: []
  m_HasGenericRootTransform: 0
  m_HasMotionFloatCurves: 0
  m_Events: []
