%YAML 1.1
%TAG !u! tag:unity3d.com,2011:
--- !u!74 &7400000
AnimationClip:
  m_ObjectHideFlags: 0
  m_CorrespondingSourceObject: {fileID: 0}
  m_PrefabInstance: {fileID: 0}
  m_PrefabAsset: {fileID: 0}
  m_Name: Player_Melee_Espada
  serializedVersion: 6
  m_Legacy: 0
  m_Compressed: 0
  m_UseHighQualityCurve: 1
  m_RotationCurves: []
  m_CompressedRotationCurves: []
  m_EulerCurves: []
  m_PositionCurves: []
  m_ScaleCurves: []
  m_FloatCurves: []
  m_PPtrCurves:
  - curve:
    - time: 0
      value: {fileID: 21300000, guid: fb227d396d2f65a4bb9e2d17c00cbe74, type: 3}
    - time: 0.08
      value: {fileID: 21300000, guid: f883113b70cfb2b40909d720e4c73fa8, type: 3}
    - time: 0.12
      value: {fileID: 21300000, guid: 97f13c2d41e9f7543aba6972cc369743, type: 3}
    - time: 0.2
      value: {fileID: 21300000, guid: cef03c58fd8275b4eb1ab0e7bc7a331d, type: 3}
    - time: 0.32
      value: {fileID: 21300000, guid: 22e2eafd1c483214d82f8a2ef3a62518, type: 3}
    - time: 0.48
      value: {fileID: 21300000, guid: e318db91ee701dd448f8fd00024be81d, type: 3}
    - time: 0.56
      value: {fileID: 21300000, guid: 4008f41f4727c2b43adaee9d2bba49d2, type: 3}
    - time: 0.64
      value: {fileID: 21300000, guid: 4008f41f4727c2b43adaee9d2bba49d2, type: 3}
    attribute: m_Sprite
    path: 
    classID: 212
    script: {fileID: 0}
  m_SampleRate: 25
  m_WrapMode: 0
  m_Bounds:
    m_Center: {x: 0, y: 0, z: 0}
    m_Extent: {x: 0, y: 0, z: 0}
  m_ClipBindingConstant:
    genericBindings:
    - serializedVersion: 2
      path: 0
      attribute: 0
      script: {fileID: 0}
      typeID: 212
      customType: 23
      isPPtrCurve: 1
    pptrCurveMapping:
    - {fileID: 21300000, guid: fb227d396d2f65a4bb9e2d17c00cbe74, type: 3}
    - {fileID: 21300000, guid: f883113b70cfb2b40909d720e4c73fa8, type: 3}
    - {fileID: 21300000, guid: 97f13c2d41e9f7543aba6972cc369743, type: 3}
    - {fileID: 21300000, guid: cef03c58fd8275b4eb1ab0e7bc7a331d, type: 3}
    - {fileID: 21300000, guid: 22e2eafd1c483214d82f8a2ef3a62518, type: 3}
    - {fileID: 21300000, guid: e318db91ee701dd448f8fd00024be81d, type: 3}
    - {fileID: 21300000, guid: 4008f41f4727c2b43adaee9d2bba49d2, type: 3}
    - {fileID: 21300000, guid: 4008f41f4727c2b43adaee9d2bba49d2, type: 3}
  m_AnimationClipSettings:
    serializedVersion: 2
    m_AdditiveReferencePoseClip: {fileID: 0}
    m_AdditiveReferencePoseTime: 0
    m_StartTime: 0
    m_StopTime: 0.68
    m_OrientationOffsetY: 0
    m_Level: 0
    m_CycleOffset: 0
    m_HasAdditiveReferencePose: 0
    m_LoopTime: 0
    m_LoopBlend: 0
    m_LoopBlendOrientation: 0
    m_LoopBlendPositionY: 0
    m_LoopBlendPositionXZ: 0
    m_KeepOriginalOrientation: 0
    m_KeepOriginalPositionY: 1
    m_KeepOriginalPositionXZ: 0
    m_HeightFromFeet: 0
    m_Mirror: 0
  m_EditorCurves: []
  m_EulerEditorCurves: []
  m_HasGenericRootTransform: 0
  m_HasMotionFloatCurves: 0
  m_Events: []
