%YAML 1.1
%TAG !u! tag:unity3d.com,2011:
--- !u!74 &7400000
AnimationClip:
  m_ObjectHideFlags: 0
  m_CorrespondingSourceObject: {fileID: 0}
  m_PrefabInstance: {fileID: 0}
  m_PrefabAsset: {fileID: 0}
  m_Name: "Player_Melee_pu\xF1etazo"
  serializedVersion: 6
  m_Legacy: 0
  m_Compressed: 0
  m_UseHighQualityCurve: 1
  m_RotationCurves: []
  m_CompressedRotationCurves: []
  m_EulerCurves: []
  m_PositionCurves: []
  m_ScaleCurves: []
  m_FloatCurves: []
  m_PPtrCurves:
  - curve:
    - time: 0
      value: {fileID: 21300000, guid: f3d6be48272ab884d8d10bfb7b96a00f, type: 3}
    - time: 0.1
      value: {fileID: 21300000, guid: 5506d9dd01f11894e9e69cdf52659a6d, type: 3}
    - time: 0.2
      value: {fileID: 21300000, guid: a9af17223f645614db5e418695a5986d, type: 3}
    - time: 0.3
      value: {fileID: 21300000, guid: ad42c2d4bdc88984591a17f1d81a6584, type: 3}
    - time: 0.4
      value: {fileID: 21300000, guid: d4cc410ed9a75594789e3efc6e8df082, type: 3}
    - time: 0.5
      value: {fileID: 21300000, guid: f21c8a3de5175d345a48deec64be31d6, type: 3}
    - time: 0.6
      value: {fileID: 21300000, guid: d6c3b46e0c9af5c41b7d2460ef910692, type: 3}
    - time: 0.7
      value: {fileID: 21300000, guid: fcd5b287d9403054da2f3ca736b0e08c, type: 3}
    - time: 0.8
      value: {fileID: 21300000, guid: ae99a15815dab284c9caa8587421ae37, type: 3}
    attribute: m_Sprite
    path: 
    classID: 212
    script: {fileID: 0}
  m_SampleRate: 10
  m_WrapMode: 0
  m_Bounds:
    m_Center: {x: 0, y: 0, z: 0}
    m_Extent: {x: 0, y: 0, z: 0}
  m_ClipBindingConstant:
    genericBindings:
    - serializedVersion: 2
      path: 0
      attribute: 0
      script: {fileID: 0}
      typeID: 212
      customType: 23
      isPPtrCurve: 1
    pptrCurveMapping:
    - {fileID: 21300000, guid: f3d6be48272ab884d8d10bfb7b96a00f, type: 3}
    - {fileID: 21300000, guid: 5506d9dd01f11894e9e69cdf52659a6d, type: 3}
    - {fileID: 21300000, guid: a9af17223f645614db5e418695a5986d, type: 3}
    - {fileID: 21300000, guid: ad42c2d4bdc88984591a17f1d81a6584, type: 3}
    - {fileID: 21300000, guid: d4cc410ed9a75594789e3efc6e8df082, type: 3}
    - {fileID: 21300000, guid: f21c8a3de5175d345a48deec64be31d6, type: 3}
    - {fileID: 21300000, guid: d6c3b46e0c9af5c41b7d2460ef910692, type: 3}
    - {fileID: 21300000, guid: fcd5b287d9403054da2f3ca736b0e08c, type: 3}
    - {fileID: 21300000, guid: ae99a15815dab284c9caa8587421ae37, type: 3}
  m_AnimationClipSettings:
    serializedVersion: 2
    m_AdditiveReferencePoseClip: {fileID: 0}
    m_AdditiveReferencePoseTime: 0
    m_StartTime: 0
    m_StopTime: 0.9
    m_OrientationOffsetY: 0
    m_Level: 0
    m_CycleOffset: 0
    m_HasAdditiveReferencePose: 0
    m_LoopTime: 0
    m_LoopBlend: 0
    m_LoopBlendOrientation: 0
    m_LoopBlendPositionY: 0
    m_LoopBlendPositionXZ: 0
    m_KeepOriginalOrientation: 0
    m_KeepOriginalPositionY: 1
    m_KeepOriginalPositionXZ: 0
    m_HeightFromFeet: 0
    m_Mirror: 0
  m_EditorCurves: []
  m_EulerEditorCurves: []
  m_HasGenericRootTransform: 0
  m_HasMotionFloatCurves: 0
  m_Events: []
