%YAML 1.1
%TAG !u! tag:unity3d.com,2011:
--- !u!74 &7400000
AnimationClip:
  m_ObjectHideFlags: 0
  m_CorrespondingSourceObject: {fileID: 0}
  m_PrefabInstance: {fileID: 0}
  m_PrefabAsset: {fileID: 0}
  m_Name: Player_Legs_IDLE
  serializedVersion: 6
  m_Legacy: 0
  m_Compressed: 0
  m_UseHighQualityCurve: 1
  m_RotationCurves: []
  m_CompressedRotationCurves: []
  m_EulerCurves: []
  m_PositionCurves: []
  m_ScaleCurves: []
  m_FloatCurves: []
  m_PPtrCurves:
  - curve:
    - time: 0
      value: {fileID: 21300000, guid: b145d2bb3ee0be64a90e59645f908bc5, type: 3}
    - time: 0.1
      value: {fileID: 21300000, guid: 4299504cf415468449f6490573fa5e42, type: 3}
    - time: 0.2
      value: {fileID: 21300000, guid: 56e3ea9678f150842a91e6efd4aa1a1d, type: 3}
    - time: 0.3
      value: {fileID: 21300000, guid: d829bb8671ad5cf418bfb9a3f6fe562b, type: 3}
    - time: 0.4
      value: {fileID: 21300000, guid: c07eb99d098de5c49828e9f442e6a02b, type: 3}
    - time: 0.5
      value: {fileID: 21300000, guid: be9c2b5a6ee98cd4eb772830113c6391, type: 3}
    attribute: m_Sprite
    path: 
    classID: 212
    script: {fileID: 0}
  m_SampleRate: 10
  m_WrapMode: 0
  m_Bounds:
    m_Center: {x: 0, y: 0, z: 0}
    m_Extent: {x: 0, y: 0, z: 0}
  m_ClipBindingConstant:
    genericBindings:
    - serializedVersion: 2
      path: 0
      attribute: 0
      script: {fileID: 0}
      typeID: 212
      customType: 23
      isPPtrCurve: 1
    pptrCurveMapping:
    - {fileID: 21300000, guid: b145d2bb3ee0be64a90e59645f908bc5, type: 3}
    - {fileID: 21300000, guid: 4299504cf415468449f6490573fa5e42, type: 3}
    - {fileID: 21300000, guid: 56e3ea9678f150842a91e6efd4aa1a1d, type: 3}
    - {fileID: 21300000, guid: d829bb8671ad5cf418bfb9a3f6fe562b, type: 3}
    - {fileID: 21300000, guid: c07eb99d098de5c49828e9f442e6a02b, type: 3}
    - {fileID: 21300000, guid: be9c2b5a6ee98cd4eb772830113c6391, type: 3}
  m_AnimationClipSettings:
    serializedVersion: 2
    m_AdditiveReferencePoseClip: {fileID: 0}
    m_AdditiveReferencePoseTime: 0
    m_StartTime: 0
    m_StopTime: 0.6
    m_OrientationOffsetY: 0
    m_Level: 0
    m_CycleOffset: 0
    m_HasAdditiveReferencePose: 0
    m_LoopTime: 1
    m_LoopBlend: 0
    m_LoopBlendOrientation: 0
    m_LoopBlendPositionY: 0
    m_LoopBlendPositionXZ: 0
    m_KeepOriginalOrientation: 0
    m_KeepOriginalPositionY: 1
    m_KeepOriginalPositionXZ: 0
    m_HeightFromFeet: 0
    m_Mirror: 0
  m_EditorCurves: []
  m_EulerEditorCurves: []
  m_HasGenericRootTransform: 0
  m_HasMotionFloatCurves: 0
  m_Events: []
