%YAML 1.1
%TAG !u! tag:unity3d.com,2011:
--- !u!74 &7400000
AnimationClip:
  m_ObjectHideFlags: 0
  m_CorrespondingSourceObject: {fileID: 0}
  m_PrefabInstance: {fileID: 0}
  m_PrefabAsset: {fileID: 0}
  m_Name: Player_Melee_Escudo_INICIO
  serializedVersion: 6
  m_Legacy: 0
  m_Compressed: 0
  m_UseHighQualityCurve: 1
  m_RotationCurves: []
  m_CompressedRotationCurves: []
  m_EulerCurves: []
  m_PositionCurves: []
  m_ScaleCurves: []
  m_FloatCurves: []
  m_PPtrCurves:
  - curve:
    - time: 0
      value: {fileID: 21300000, guid: 9bd7791bf7b39624fb6e655a6461050a, type: 3}
    - time: 0.05
      value: {fileID: 21300000, guid: 7df63f270fee1c142adbebc9f5206fbb, type: 3}
    - time: 0.125
      value: {fileID: 21300000, guid: 56f9d68c6a51c4344b90cd0a34dc68f3, type: 3}
    - time: 0.175
      value: {fileID: 21300000, guid: a391928761fe0b149946068815f999be, type: 3}
    - time: 0.25
      value: {fileID: 21300000, guid: 1e0ee8da3cb007348a1542f9de46c28a, type: 3}
    - time: 0.35
      value: {fileID: 21300000, guid: 05b064cfebafd504fa8a202b7504ca65, type: 3}
    - time: 0.425
      value: {fileID: 21300000, guid: 49e3a041cead14c43a245a35d70c7a64, type: 3}
    attribute: m_Sprite
    path: 
    classID: 212
    script: {fileID: 0}
  m_SampleRate: 40
  m_WrapMode: 0
  m_Bounds:
    m_Center: {x: 0, y: 0, z: 0}
    m_Extent: {x: 0, y: 0, z: 0}
  m_ClipBindingConstant:
    genericBindings:
    - serializedVersion: 2
      path: 0
      attribute: 0
      script: {fileID: 0}
      typeID: 212
      customType: 23
      isPPtrCurve: 1
    pptrCurveMapping:
    - {fileID: 21300000, guid: 9bd7791bf7b39624fb6e655a6461050a, type: 3}
    - {fileID: 21300000, guid: 7df63f270fee1c142adbebc9f5206fbb, type: 3}
    - {fileID: 21300000, guid: 56f9d68c6a51c4344b90cd0a34dc68f3, type: 3}
    - {fileID: 21300000, guid: a391928761fe0b149946068815f999be, type: 3}
    - {fileID: 21300000, guid: 1e0ee8da3cb007348a1542f9de46c28a, type: 3}
    - {fileID: 21300000, guid: 05b064cfebafd504fa8a202b7504ca65, type: 3}
    - {fileID: 21300000, guid: 49e3a041cead14c43a245a35d70c7a64, type: 3}
  m_AnimationClipSettings:
    serializedVersion: 2
    m_AdditiveReferencePoseClip: {fileID: 0}
    m_AdditiveReferencePoseTime: 0
    m_StartTime: 0
    m_StopTime: 0.45
    m_OrientationOffsetY: 0
    m_Level: 0
    m_CycleOffset: 0
    m_HasAdditiveReferencePose: 0
    m_LoopTime: 0
    m_LoopBlend: 0
    m_LoopBlendOrientation: 0
    m_LoopBlendPositionY: 0
    m_LoopBlendPositionXZ: 0
    m_KeepOriginalOrientation: 0
    m_KeepOriginalPositionY: 1
    m_KeepOriginalPositionXZ: 0
    m_HeightFromFeet: 0
    m_Mirror: 0
  m_EditorCurves: []
  m_EulerEditorCurves: []
  m_HasGenericRootTransform: 0
  m_HasMotionFloatCurves: 0
  m_Events: []
