%YAML 1.1
%TAG !u! tag:unity3d.com,2011:
--- !u!74 &7400000
AnimationClip:
  m_ObjectHideFlags: 0
  m_CorrespondingSourceObject: {fileID: 0}
  m_PrefabInstance: {fileID: 0}
  m_PrefabAsset: {fileID: 0}
  m_Name: AttackWithPlayer
  serializedVersion: 6
  m_Legacy: 0
  m_Compressed: 0
  m_UseHighQualityCurve: 1
  m_RotationCurves: []
  m_CompressedRotationCurves: []
  m_EulerCurves: []
  m_PositionCurves: []
  m_ScaleCurves: []
  m_FloatCurves: []
  m_PPtrCurves:
  - curve:
    - time: 0
      value: {fileID: 6478215332735162672, guid: 54888f5392cb72a49bb579dddcf9f899,
        type: 3}
    - time: 0.083333336
      value: {fileID: -1731843701099691306, guid: 54888f5392cb72a49bb579dddcf9f899,
        type: 3}
    - time: 0.16666667
      value: {fileID: 7064167169847309794, guid: 54888f5392cb72a49bb579dddcf9f899,
        type: 3}
    - time: 0.25
      value: {fileID: -8471591953915223104, guid: 54888f5392cb72a49bb579dddcf9f899,
        type: 3}
    - time: 0.33333334
      value: {fileID: 3619384474743224535, guid: 54888f5392cb72a49bb579dddcf9f899,
        type: 3}
    - time: 0.41666666
      value: {fileID: -541044805083427698, guid: 54888f5392cb72a49bb579dddcf9f899,
        type: 3}
    - time: 0.5
      value: {fileID: 272947646080983432, guid: 54888f5392cb72a49bb579dddcf9f899,
        type: 3}
    - time: 0.5833333
      value: {fileID: -8925952701678075149, guid: 54888f5392cb72a49bb579dddcf9f899,
        type: 3}
    - time: 0.6666667
      value: {fileID: -5637861405143432605, guid: 54888f5392cb72a49bb579dddcf9f899,
        type: 3}
    - time: 0.75
      value: {fileID: 2653316791253998965, guid: 54888f5392cb72a49bb579dddcf9f899,
        type: 3}
    - time: 0.8333333
      value: {fileID: 9188766753266831157, guid: 54888f5392cb72a49bb579dddcf9f899,
        type: 3}
    - time: 0.9166667
      value: {fileID: -6560674689556893975, guid: 54888f5392cb72a49bb579dddcf9f899,
        type: 3}
    - time: 1
      value: {fileID: 8256660363457264579, guid: 54888f5392cb72a49bb579dddcf9f899,
        type: 3}
    - time: 1.0833334
      value: {fileID: -3233074635808825471, guid: 54888f5392cb72a49bb579dddcf9f899,
        type: 3}
    - time: 1.1666666
      value: {fileID: -3998741138554081887, guid: 54888f5392cb72a49bb579dddcf9f899,
        type: 3}
    - time: 1.25
      value: {fileID: 4244405338594030990, guid: 54888f5392cb72a49bb579dddcf9f899,
        type: 3}
    - time: 1.3333334
      value: {fileID: 3908752339727100423, guid: 54888f5392cb72a49bb579dddcf9f899,
        type: 3}
    - time: 1.4166666
      value: {fileID: 1438232567531200536, guid: 54888f5392cb72a49bb579dddcf9f899,
        type: 3}
    - time: 1.5
      value: {fileID: 2565166190631409111, guid: 54888f5392cb72a49bb579dddcf9f899,
        type: 3}
    - time: 1.5833334
      value: {fileID: -4506365620877894908, guid: 54888f5392cb72a49bb579dddcf9f899,
        type: 3}
    - time: 1.6666666
      value: {fileID: 6050974800054401535, guid: 54888f5392cb72a49bb579dddcf9f899,
        type: 3}
    - time: 1.75
      value: {fileID: 2666695939868301795, guid: 54888f5392cb72a49bb579dddcf9f899,
        type: 3}
    - time: 1.8333334
      value: {fileID: -8733122734932607659, guid: 54888f5392cb72a49bb579dddcf9f899,
        type: 3}
    - time: 1.9166666
      value: {fileID: -2611571813991269501, guid: 54888f5392cb72a49bb579dddcf9f899,
        type: 3}
    - time: 2
      value: {fileID: 3256986680473469097, guid: 54888f5392cb72a49bb579dddcf9f899,
        type: 3}
    - time: 2.0833333
      value: {fileID: 2119508293537665384, guid: 54888f5392cb72a49bb579dddcf9f899,
        type: 3}
    - time: 2.1666667
      value: {fileID: 9031426534012172635, guid: 54888f5392cb72a49bb579dddcf9f899,
        type: 3}
    - time: 2.25
      value: {fileID: 2995514359854600951, guid: 54888f5392cb72a49bb579dddcf9f899,
        type: 3}
    - time: 2.3333333
      value: {fileID: 4013682721889111930, guid: 54888f5392cb72a49bb579dddcf9f899,
        type: 3}
    - time: 2.4166667
      value: {fileID: -3881363218690299519, guid: 54888f5392cb72a49bb579dddcf9f899,
        type: 3}
    - time: 2.5
      value: {fileID: -6206805117322298163, guid: 54888f5392cb72a49bb579dddcf9f899,
        type: 3}
    - time: 2.5833333
      value: {fileID: -8253708607038473137, guid: 54888f5392cb72a49bb579dddcf9f899,
        type: 3}
    - time: 2.6666667
      value: {fileID: 3746475766675417124, guid: 54888f5392cb72a49bb579dddcf9f899,
        type: 3}
    - time: 2.75
      value: {fileID: 213815572654849385, guid: 54888f5392cb72a49bb579dddcf9f899,
        type: 3}
    - time: 2.8333333
      value: {fileID: 7233137284182661698, guid: 54888f5392cb72a49bb579dddcf9f899,
        type: 3}
    - time: 2.9166667
      value: {fileID: -551966360075842875, guid: 54888f5392cb72a49bb579dddcf9f899,
        type: 3}
    - time: 3
      value: {fileID: 729700870701803578, guid: 54888f5392cb72a49bb579dddcf9f899,
        type: 3}
    - time: 3.0833333
      value: {fileID: 3360242849594602662, guid: 54888f5392cb72a49bb579dddcf9f899,
        type: 3}
    - time: 3.1666667
      value: {fileID: -2820276713990354142, guid: 54888f5392cb72a49bb579dddcf9f899,
        type: 3}
    - time: 3.25
      value: {fileID: -9082917139501522336, guid: 54888f5392cb72a49bb579dddcf9f899,
        type: 3}
    - time: 3.3333333
      value: {fileID: -2897273266678028060, guid: 54888f5392cb72a49bb579dddcf9f899,
        type: 3}
    - time: 3.4166667
      value: {fileID: -7784827844545624887, guid: 54888f5392cb72a49bb579dddcf9f899,
        type: 3}
    - time: 3.5
      value: {fileID: 5227301682486850658, guid: 54888f5392cb72a49bb579dddcf9f899,
        type: 3}
    - time: 3.5833333
      value: {fileID: -6285929206494231550, guid: 54888f5392cb72a49bb579dddcf9f899,
        type: 3}
    - time: 3.6666667
      value: {fileID: -3725404063418313386, guid: 54888f5392cb72a49bb579dddcf9f899,
        type: 3}
    - time: 3.75
      value: {fileID: 6220587520847496921, guid: 54888f5392cb72a49bb579dddcf9f899,
        type: 3}
    - time: 3.8333333
      value: {fileID: -7159698598588229334, guid: 54888f5392cb72a49bb579dddcf9f899,
        type: 3}
    - time: 3.9166667
      value: {fileID: -7784792448917762018, guid: 54888f5392cb72a49bb579dddcf9f899,
        type: 3}
    - time: 4
      value: {fileID: -5100964825242544932, guid: 54888f5392cb72a49bb579dddcf9f899,
        type: 3}
    - time: 4.0833335
      value: {fileID: 9012743926978091456, guid: 54888f5392cb72a49bb579dddcf9f899,
        type: 3}
    - time: 4.1666665
      value: {fileID: -1754293333008296429, guid: 54888f5392cb72a49bb579dddcf9f899,
        type: 3}
    - time: 4.25
      value: {fileID: 8251530309066471917, guid: 54888f5392cb72a49bb579dddcf9f899,
        type: 3}
    - time: 4.3333335
      value: {fileID: -7863535265402274656, guid: 54888f5392cb72a49bb579dddcf9f899,
        type: 3}
    - time: 4.4166665
      value: {fileID: -1691647649427967960, guid: 54888f5392cb72a49bb579dddcf9f899,
        type: 3}
    - time: 4.5
      value: {fileID: -963414445032060091, guid: 54888f5392cb72a49bb579dddcf9f899,
        type: 3}
    - time: 4.5833335
      value: {fileID: 2065684047139317067, guid: 54888f5392cb72a49bb579dddcf9f899,
        type: 3}
    - time: 4.6666665
      value: {fileID: -2975655682813290426, guid: 54888f5392cb72a49bb579dddcf9f899,
        type: 3}
    - time: 4.75
      value: {fileID: 4393905131790176026, guid: 54888f5392cb72a49bb579dddcf9f899,
        type: 3}
    - time: 4.8333335
      value: {fileID: 3568507956956270536, guid: 54888f5392cb72a49bb579dddcf9f899,
        type: 3}
    - time: 4.9166665
      value: {fileID: 2778779031769633293, guid: 54888f5392cb72a49bb579dddcf9f899,
        type: 3}
    attribute: m_Sprite
    path: 
    classID: 212
    script: {fileID: 0}
  m_SampleRate: 12
  m_WrapMode: 0
  m_Bounds:
    m_Center: {x: 0, y: 0, z: 0}
    m_Extent: {x: 0, y: 0, z: 0}
  m_ClipBindingConstant:
    genericBindings:
    - serializedVersion: 2
      path: 0
      attribute: 0
      script: {fileID: 0}
      typeID: 212
      customType: 23
      isPPtrCurve: 1
    pptrCurveMapping:
    - {fileID: 6478215332735162672, guid: 54888f5392cb72a49bb579dddcf9f899, type: 3}
    - {fileID: -1731843701099691306, guid: 54888f5392cb72a49bb579dddcf9f899, type: 3}
    - {fileID: 7064167169847309794, guid: 54888f5392cb72a49bb579dddcf9f899, type: 3}
    - {fileID: -8471591953915223104, guid: 54888f5392cb72a49bb579dddcf9f899, type: 3}
    - {fileID: 3619384474743224535, guid: 54888f5392cb72a49bb579dddcf9f899, type: 3}
    - {fileID: -541044805083427698, guid: 54888f5392cb72a49bb579dddcf9f899, type: 3}
    - {fileID: 272947646080983432, guid: 54888f5392cb72a49bb579dddcf9f899, type: 3}
    - {fileID: -8925952701678075149, guid: 54888f5392cb72a49bb579dddcf9f899, type: 3}
    - {fileID: -5637861405143432605, guid: 54888f5392cb72a49bb579dddcf9f899, type: 3}
    - {fileID: 2653316791253998965, guid: 54888f5392cb72a49bb579dddcf9f899, type: 3}
    - {fileID: 9188766753266831157, guid: 54888f5392cb72a49bb579dddcf9f899, type: 3}
    - {fileID: -6560674689556893975, guid: 54888f5392cb72a49bb579dddcf9f899, type: 3}
    - {fileID: 8256660363457264579, guid: 54888f5392cb72a49bb579dddcf9f899, type: 3}
    - {fileID: -3233074635808825471, guid: 54888f5392cb72a49bb579dddcf9f899, type: 3}
    - {fileID: -3998741138554081887, guid: 54888f5392cb72a49bb579dddcf9f899, type: 3}
    - {fileID: 4244405338594030990, guid: 54888f5392cb72a49bb579dddcf9f899, type: 3}
    - {fileID: 3908752339727100423, guid: 54888f5392cb72a49bb579dddcf9f899, type: 3}
    - {fileID: 1438232567531200536, guid: 54888f5392cb72a49bb579dddcf9f899, type: 3}
    - {fileID: 2565166190631409111, guid: 54888f5392cb72a49bb579dddcf9f899, type: 3}
    - {fileID: -4506365620877894908, guid: 54888f5392cb72a49bb579dddcf9f899, type: 3}
    - {fileID: 6050974800054401535, guid: 54888f5392cb72a49bb579dddcf9f899, type: 3}
    - {fileID: 2666695939868301795, guid: 54888f5392cb72a49bb579dddcf9f899, type: 3}
    - {fileID: -8733122734932607659, guid: 54888f5392cb72a49bb579dddcf9f899, type: 3}
    - {fileID: -2611571813991269501, guid: 54888f5392cb72a49bb579dddcf9f899, type: 3}
    - {fileID: 3256986680473469097, guid: 54888f5392cb72a49bb579dddcf9f899, type: 3}
    - {fileID: 2119508293537665384, guid: 54888f5392cb72a49bb579dddcf9f899, type: 3}
    - {fileID: 9031426534012172635, guid: 54888f5392cb72a49bb579dddcf9f899, type: 3}
    - {fileID: 2995514359854600951, guid: 54888f5392cb72a49bb579dddcf9f899, type: 3}
    - {fileID: 4013682721889111930, guid: 54888f5392cb72a49bb579dddcf9f899, type: 3}
    - {fileID: -3881363218690299519, guid: 54888f5392cb72a49bb579dddcf9f899, type: 3}
    - {fileID: -6206805117322298163, guid: 54888f5392cb72a49bb579dddcf9f899, type: 3}
    - {fileID: -8253708607038473137, guid: 54888f5392cb72a49bb579dddcf9f899, type: 3}
    - {fileID: 3746475766675417124, guid: 54888f5392cb72a49bb579dddcf9f899, type: 3}
    - {fileID: 213815572654849385, guid: 54888f5392cb72a49bb579dddcf9f899, type: 3}
    - {fileID: 7233137284182661698, guid: 54888f5392cb72a49bb579dddcf9f899, type: 3}
    - {fileID: -551966360075842875, guid: 54888f5392cb72a49bb579dddcf9f899, type: 3}
    - {fileID: 729700870701803578, guid: 54888f5392cb72a49bb579dddcf9f899, type: 3}
    - {fileID: 3360242849594602662, guid: 54888f5392cb72a49bb579dddcf9f899, type: 3}
    - {fileID: -2820276713990354142, guid: 54888f5392cb72a49bb579dddcf9f899, type: 3}
    - {fileID: -9082917139501522336, guid: 54888f5392cb72a49bb579dddcf9f899, type: 3}
    - {fileID: -2897273266678028060, guid: 54888f5392cb72a49bb579dddcf9f899, type: 3}
    - {fileID: -7784827844545624887, guid: 54888f5392cb72a49bb579dddcf9f899, type: 3}
    - {fileID: 5227301682486850658, guid: 54888f5392cb72a49bb579dddcf9f899, type: 3}
    - {fileID: -6285929206494231550, guid: 54888f5392cb72a49bb579dddcf9f899, type: 3}
    - {fileID: -3725404063418313386, guid: 54888f5392cb72a49bb579dddcf9f899, type: 3}
    - {fileID: 6220587520847496921, guid: 54888f5392cb72a49bb579dddcf9f899, type: 3}
    - {fileID: -7159698598588229334, guid: 54888f5392cb72a49bb579dddcf9f899, type: 3}
    - {fileID: -7784792448917762018, guid: 54888f5392cb72a49bb579dddcf9f899, type: 3}
    - {fileID: -5100964825242544932, guid: 54888f5392cb72a49bb579dddcf9f899, type: 3}
    - {fileID: 9012743926978091456, guid: 54888f5392cb72a49bb579dddcf9f899, type: 3}
    - {fileID: -1754293333008296429, guid: 54888f5392cb72a49bb579dddcf9f899, type: 3}
    - {fileID: 8251530309066471917, guid: 54888f5392cb72a49bb579dddcf9f899, type: 3}
    - {fileID: -7863535265402274656, guid: 54888f5392cb72a49bb579dddcf9f899, type: 3}
    - {fileID: -1691647649427967960, guid: 54888f5392cb72a49bb579dddcf9f899, type: 3}
    - {fileID: -963414445032060091, guid: 54888f5392cb72a49bb579dddcf9f899, type: 3}
    - {fileID: 2065684047139317067, guid: 54888f5392cb72a49bb579dddcf9f899, type: 3}
    - {fileID: -2975655682813290426, guid: 54888f5392cb72a49bb579dddcf9f899, type: 3}
    - {fileID: 4393905131790176026, guid: 54888f5392cb72a49bb579dddcf9f899, type: 3}
    - {fileID: 3568507956956270536, guid: 54888f5392cb72a49bb579dddcf9f899, type: 3}
    - {fileID: 2778779031769633293, guid: 54888f5392cb72a49bb579dddcf9f899, type: 3}
  m_AnimationClipSettings:
    serializedVersion: 2
    m_AdditiveReferencePoseClip: {fileID: 0}
    m_AdditiveReferencePoseTime: 0
    m_StartTime: 0
    m_StopTime: 5
    m_OrientationOffsetY: 0
    m_Level: 0
    m_CycleOffset: 0
    m_HasAdditiveReferencePose: 0
    m_LoopTime: 1
    m_LoopBlend: 0
    m_LoopBlendOrientation: 0
    m_LoopBlendPositionY: 0
    m_LoopBlendPositionXZ: 0
    m_KeepOriginalOrientation: 0
    m_KeepOriginalPositionY: 1
    m_KeepOriginalPositionXZ: 0
    m_HeightFromFeet: 0
    m_Mirror: 0
  m_EditorCurves: []
  m_EulerEditorCurves: []
  m_HasGenericRootTransform: 0
  m_HasMotionFloatCurves: 0
  m_Events: []
